[
  {
    "nombre": "Mauricio Pochettino",
    "edad": 49,
    "nacionalidad": "Argentino",
    "experiencia": "Ex jugador y entrenador con varios años de experiencia en ligas europeas."
  },
  {
    "nombre": "Ole Gunnar Solskjær",
    "edad": 49,
    "nacionalidad": "Noruego",
    "experiencia": "Ex jugador del Manchester United y entrenador con experiencia en el fútbol inglés."
  },
  {
    "nombre": "Julian Nagelsmann",
    "edad": 34,
    "nacionalidad": "Alemán",
    "experiencia": "Entrenador joven con gran proyección, anteriormente en el RB Leipzig."
  },
  {
    "nombre": "Pep Guardiola",
    "edad": 50,
    "nacionalidad": "Español",
    "experiencia": "Ex jugador y entrenador exitoso en Barcelona, Bayern Munich y Manchester City."
  },
  {
    "nombre": "Jurgen Klopp",
    "edad": 54,
    "nacionalidad": "Alemán",
    "experiencia": "Ex jugador y exitoso entrenador en Borussia Dortmund y Liverpool."
  },
  {
    "nombre": "Diego Simeone",
    "edad": 51,
    "nacionalidad": "Argentino",
    "experiencia": "Ex jugador y entrenador conocido por su éxito con el Atlético de Madrid."
  },
  {
    "nombre": "Zinedine Zidane",
    "edad": 49,
    "nacionalidad": "Francés",
    "experiencia": "Ex jugador y exitoso entrenador del Real Madrid."
  },
  {
    "nombre": "Xavi Hernández",
    "edad": 42,
    "nacionalidad": "Español",
    "experiencia": "Ex jugador del Barcelona y nuevo entrenador del equipo."
  }
]
