[
  {
    "encuentro": "611c8ec3ac74367541dbf0ca",
    "goles_equipo_local": 2,
    "goles_equipo_visitante": 1,
    "tarjetas_amarillas": 3,
    "tarjetas_rojas": 0,
    "otros_detalles": "Partido disputado con intensidad hasta el último minuto."
  },
  {
    "encuentro": "611c8ec3ac74367541dbf0e4",
    "goles_equipo_local": 3,
    "goles_equipo_visitante": 2,
    "tarjetas_amarillas": 2,
    "tarjetas_rojas": 0,
    "otros_detalles": "Partido emocionante con varios goles en la segunda mitad."
  },
  {
    "encuentro": "611c8ec3ac74367541dbf0e5",
    "goles_equipo_local": 1,
    "goles_equipo_visitante": 0,
    "tarjetas_amarillas": 1,
    "tarjetas_rojas": 0,
    "otros_detalles": "El equipo local dominó el partido y ganó con un gol tempranero."
  },
  {
    "encuentro": "611c8ec3ac74367541dbf0e6",
    "goles_equipo_local": 3,
    "goles_equipo_visitante": 1,
    "tarjetas_amarillas": 4,
    "tarjetas_rojas": 0,
    "otros_detalles": "El equipo local mostró superioridad en todas las líneas."
  },
  {
    "encuentro": "611c8ec3ac74367541dbf0e7",
    "goles_equipo_local": 2,
    "goles_equipo_visitante": 3,
    "tarjetas_amarillas": 3,
    "tarjetas_rojas": 1,
    "otros_detalles": "Partido reñido con expulsión controvertida en el segundo tiempo."
  },
  {
    "encuentro": "611c8ec3ac74367541dbf0e8",
    "goles_equipo_local": 1,
    "goles_equipo_visitante": 2,
    "tarjetas_amarillas": 2,
    "tarjetas_rojas": 0,
    "otros_detalles": "El equipo visitante logró la victoria con un gol en el tiempo añadido."
  },
  {
    "encuentro": "611c8ec3ac74367541dbf0e9",
    "goles_equipo_local": 2,
    "goles_equipo_visitante": 2,
    "tarjetas_amarillas": 2,
    "tarjetas_rojas": 0,
    "otros_detalles": "Partido equilibrado que terminó en empate."
  },
  {
    "encuentro": "611c8ec3ac74367541dbf0ea",
    "goles_equipo_local": 0,
    "goles_equipo_visitante": 1,
    "tarjetas_amarillas": 2,
    "tarjetas_rojas": 0,
    "otros_detalles": "El equipo visitante se lleva los tres puntos con un gol en la segunda mitad."
  }
]
