[
  {
    "torneo": "Copa Mundial FIFA 2022",
    "equipo": "Paris Saint-Germain",
    "puntos": 6,
    "partidos_jugados": 2,
    "partidos_ganados": 2,
    "partidos_empatados": 0,
    "partidos_perdidos": 0,
    "goles_a_favor": 5,
    "goles_en_contra": 1,
    "diferencia_goles": 4
  },
  {
    "torneo": "Copa Mundial FIFA 2022",
    "equipo": "Manchester United",
    "puntos": 3,
    "partidos_jugados": 2,
    "partidos_ganados": 1,
    "partidos_empatados": 0,
    "partidos_perdidos": 1,
    "goles_a_favor": 3,
    "goles_en_contra": 4,
    "diferencia_goles": -1
  },
  {
    "torneo": "Copa Mundial FIFA 2022",
    "equipo": "Bayern Munich",
    "puntos": 3,
    "partidos_jugados": 2,
    "partidos_ganados": 1,
    "partidos_empatados": 0,
    "partidos_perdidos": 1,
    "goles_a_favor": 3,
    "goles_en_contra": 3,
    "diferencia_goles": 0
  },
  {
    "torneo": "Copa Mundial FIFA 2022",
    "equipo": "Liverpool",
    "puntos": 3,
    "partidos_jugados": 2,
    "partidos_ganados": 1,
    "partidos_empatados": 0,
    "partidos_perdidos": 1,
    "goles_a_favor": 2,
    "goles_en_contra": 3,
    "diferencia_goles": -1
  },
  {
    "torneo": "Copa Mundial FIFA 2022",
    "equipo": "Atlético de Madrid",
    "puntos": 3,
    "partidos_jugados": 2,
    "partidos_ganados": 1,
    "partidos_empatados": 0,
    "partidos_perdidos": 1,
    "goles_a_favor": 1,
    "goles_en_contra": 2,
    "diferencia_goles": -1
  },
  {
    "torneo": "Copa Mundial FIFA 2022",
    "equipo": "Manchester City",
    "puntos": 1,
    "partidos_jugados": 2,
    "partidos_ganados": 0,
    "partidos_empatados": 1,
    "partidos_perdidos": 1,
    "goles_a_favor": 2,
    "goles_en_contra": 3,
    "diferencia_goles": -1
  },
  {
    "torneo": "Copa Mundial FIFA 2022",
    "equipo": "Real Madrid",
    "puntos": 1,
    "partidos_jugados": 2,
    "partidos_ganados": 0,
    "partidos_empatados": 1,
    "partidos_perdidos": 1,
    "goles_a_favor": 1,
    "goles_en_contra": 2,
    "diferencia_goles": -1
  },
  {
    "torneo": "Copa Mundial FIFA 2022",
    "equipo": "Barcelona",
    "puntos": 1,
    "partidos_jugados": 2,
    "partidos_ganados": 0,
    "partidos_empatados": 1,
    "partidos_perdidos": 1,
    "goles_a_favor": 1,
    "goles_en_contra": 3,
    "diferencia_goles": -2
  }
]
